<?xml version="1.0" encoding="UTF-8"?>
<svg width="116px" height="116px" viewBox="0 0 116 116" version="1.1" xmlns="http://www.w3.org/2000/svg" xmlns:xlink="http://www.w3.org/1999/xlink">
    <title>ICON</title>
    <g id="Page-1" stroke="none" stroke-width="1" fill="none" fill-rule="evenodd">
        <g id="Home-v2" transform="translate(-477.000000, -1205.000000)">
            <g id="SERVICES" transform="translate(397.000000, 988.000000)">
                <g id="1" transform="translate(0.000000, 219.000000)">
                    <g id="ICON" transform="translate(82.000000, 0.000000)">
                        <path d="M56,112 C86.927946,112 112,86.927946 112,56 C112,25.072054 86.927946,0 56,0 C25.072054,0 0,25.072054 0,56 C0,86.927946 25.072054,112 56,112 Z" id="Oval-Copy" stroke="#C0C6D3" stroke-width="3" stroke-linecap="round" stroke-dasharray="0,11"></path>
                        <circle id="Oval-Copy-2" fill="#2F5BEA" cx="56" cy="56" r="49"></circle>
                        <g id="Authorization_success" transform="translate(36.720000, 34.400000)" fill="#FFFFFF">
                            <path d="M37.91,6.27 C37.32,3.93 34.09,0 19,0 C11.89,0 6.73,0.78 3.66,2.32 C0.27,4.02 0,6.32 0,7 L0,20.3 C0.0158683233,28.5919031 4.49376792,36.23337 11.72,40.3 L17.53,43.57 C18.4428362,44.0831103 19.5571638,44.0831103 20.47,43.57 L26.28,40.3 C33.5062321,36.23337 37.9841317,28.5919031 38,20.3 L38,7 C38.0000562,6.75389623 37.9698291,6.50872065 37.91,6.27 Z M35,20.27 C35.0004248,27.4939266 31.1052272,34.156664 24.81,37.7 L19,41 L13.19,37.73 C6.89477278,34.186664 2.99957518,27.5239266 3,20.3 L3,7 C3,7 3,3 19,3 C34,3 35,7 35,7 L35,20.27 Z" id="Shape"></path>
                            <path d="M27.94,13.94 L18,23.88 L12.06,17.94 C11.4689805,17.3892823 10.5479806,17.4055322 9.9767564,17.9767564 C9.40553225,18.5479806 9.38928228,19.4689805 9.94,20.06 L16.94,27.06 C17.5256351,27.6449068 18.4743649,27.6449068 19.06,27.06 L30.06,16.06 C30.6107177,15.4689805 30.5944678,14.5479806 30.0232436,13.9767564 C29.4520194,13.4055322 28.5310195,13.3892823 27.94,13.94 L27.94,13.94 Z" id="Shape"></path>
                        </g>
                    </g>
                </g>
            </g>
        </g>
    </g>
</svg>